[
    {
        "id": {
            "$oid": "5bc20e24fcbbc700045e7d90"
        },
        "title": "Beautiful road",
        "url": "https://cloudserviceapp.herokuapp.com/images/5bc20e24fcbbc700045e7d90.jpg"
    },
    {
        "id": {
            "$oid": "5c7bd47495cbe0000434fca3"
        },
        "title": "Ocean",
        "url": "https://cloudserviceapp.herokuapp.com/images/5bc20e24fcbbc700045e7d90.jpg"
    },
    {
        "id": {
            "$oid": "5c7bd4a295cbe0000434fca4"
        },
        "title": "Night",
        "url": "https://cloudserviceapp.herokuapp.com/images/5bc20e24fcbbc700045e7d90.jpg"
    },
    {
        "id": {
            "$oid": "5c7bd4c695cbe0000434fca5"
        },
        "title": "Beach",
        "url": "https://cloudserviceapp.herokuapp.com/images/5bc20e24fcbbc700045e7d90.jpg"
    },
    {}
]
